<svg width="23" height="22" viewBox="0 0 23 22" fill="none" xmlns="http://www.w3.org/2000/svg">
<g clip-path="url(#clip0_7895_872)">
<path d="M15.7777 7.33251V5.52973C15.7777 4.96797 15.667 4.4117 15.452 3.8927C15.2371 3.37369 14.922 2.90211 14.5247 2.50489C14.1275 2.10766 13.6559 1.79256 13.1369 1.57758C12.6179 1.3626 12.0617 1.25195 11.4999 1.25195C10.9381 1.25195 10.3819 1.3626 9.86286 1.57758C9.34385 1.79256 8.87227 2.10766 8.47505 2.50489C8.07782 2.90211 7.76272 3.37369 7.54774 3.8927C7.33276 4.4117 7.22211 4.96797 7.22211 5.52973V9.80751C7.22211 9.96959 7.2865 10.125 7.4011 10.2396C7.51571 10.3542 7.67115 10.4186 7.83323 10.4186C7.9953 10.4186 8.15074 10.3542 8.26535 10.2396C8.37995 10.125 8.44434 9.96959 8.44434 9.80751V8.55473H13.3332V7.33251H8.44434V5.52973C8.44434 4.71935 8.76626 3.94216 9.33929 3.36913C9.91232 2.7961 10.6895 2.47418 11.4999 2.47418C12.3103 2.47418 13.0875 2.7961 13.6605 3.36913C14.2335 3.94216 14.5554 4.71935 14.5554 5.52973V9.77695C14.5554 9.93903 14.6198 10.0945 14.7344 10.2091C14.849 10.3237 15.0045 10.3881 15.1666 10.3881C15.3286 10.3881 15.4841 10.3237 15.5987 10.2091C15.7133 10.0945 15.7777 9.93903 15.7777 9.77695V8.55473H18.8332V19.5547H4.16656V8.55473H5.99989V7.33251H2.94434V19.6097C2.94434 19.9193 3.06731 20.2162 3.28621 20.4351C3.5051 20.654 3.80199 20.777 4.11156 20.777H18.8882C19.1978 20.777 19.4947 20.654 19.7136 20.4351C19.9325 20.2162 20.0554 19.9193 20.0554 19.6097V7.33251H15.7777Z" fill="#E9E9EA"/>
</g>
<defs>
<clipPath id="clip0_7895_872">
<rect width="22" height="22" fill="white" transform="translate(0.5)"/>
</clipPath>
</defs>
</svg>
