<svg width="59" height="59" viewBox="0 0 59 59" fill="none" xmlns="http://www.w3.org/2000/svg">
<g clip-path="url(#clip0_4182_674)">
<path d="M29.5 59C45.7924 59 59 45.7924 59 29.5C59 13.2076 45.7924 0 29.5 0C13.2076 0 0 13.2076 0 29.5C0 45.7924 13.2076 59 29.5 59Z" fill="#32BA7C"/>
<path d="M21.9619 42.8077L37.1307 57.9765C49.6938 54.6263 58.9998 43.1799 58.9998 29.5001C58.9998 29.221 58.9998 28.9418 58.9998 28.6626L47.0881 17.6815L21.9619 42.8077Z" fill="#0AA06E"/>
<path d="M30.2438 36.1072C31.5466 37.41 31.5466 39.6435 30.2438 40.9463L27.545 43.645C26.2422 44.9479 24.0087 44.9479 22.7059 43.645L10.8873 31.7334C9.58445 30.4305 9.58445 28.1971 10.8873 26.8943L13.586 24.1955C14.8889 22.8927 17.1223 22.8927 18.4251 24.1955L30.2438 36.1072Z" fill="white"/>
<path d="M40.5734 15.541C41.8762 14.2381 44.1096 14.2381 45.4125 15.541L48.1112 18.2397C49.4141 19.5426 49.4141 21.776 48.1112 23.0788L27.638 43.459C26.3352 44.7618 24.1018 44.7618 22.7989 43.459L20.1002 40.7602C18.7973 39.4574 18.7973 37.2239 20.1002 35.9211L40.5734 15.541Z" fill="white"/>
</g>
<defs>
<clipPath id="clip0_4182_674">
<rect width="59" height="59" fill="white"/>
</clipPath>
</defs>
</svg>
