<svg width="23" height="22" viewBox="0 0 23 22" fill="none" xmlns="http://www.w3.org/2000/svg">
<path d="M6.91667 6.41667H6.91758M3.25 10.241V4.58333C3.25 4.0971 3.44315 3.63079 3.78697 3.28697C4.13079 2.94315 4.5971 2.75 5.08333 2.75H10.741C11.2272 2.7501 11.6934 2.94333 12.0372 3.28717L19.3705 10.6205C19.7142 10.9643 19.9073 11.4305 19.9073 11.9167C19.9073 12.4028 19.7142 12.869 19.3705 13.2128L13.7128 18.8705C13.369 19.2142 12.9028 19.4073 12.4167 19.4073C11.9305 19.4073 11.4643 19.2142 11.1205 18.8705L3.78717 11.5372C3.44333 11.1934 3.2501 10.7272 3.25 10.241V10.241Z" stroke="#E9E9EA" stroke-width="1.2" stroke-linecap="round" stroke-linejoin="round"/>
</svg>
